<?xml version="1.0" encoding="iso-8859-1"?>
<!-- Generator: Adobe Illustrator 21.0.0, SVG Export Plug-In . SVG Version: 6.00 Build 0)  -->
<svg xmlns="http://www.w3.org/2000/svg" xmlns:xlink="http://www.w3.org/1999/xlink" version="1.1" id="Capa_1" x="0px" y="0px" viewBox="0 0 511.129 511.129" style="enable-background:new 0 0 511.129 511.129;" xml:space="preserve" width="512" height="512">
<g>
	<path style="fill:#E0E0E0;" d="M335.454,124.668h-159.78c-7.398,0-13.395-5.997-13.395-13.395l0,0   c0-7.398,5.997-13.395,13.395-13.395h159.78c7.398,0,13.395,5.997,13.395,13.395l0,0   C348.849,118.671,342.852,124.668,335.454,124.668z"/>
	<path style="fill:#C4C4C4;" d="M335.454,97.879h-27c7.398,0,13.395,5.997,13.395,13.395s-5.997,13.395-13.395,13.395h27   c7.398,0,13.395-5.997,13.395-13.395S342.852,97.879,335.454,97.879z"/>
	<path style="fill:#FFDF65;" d="M391.856,374.926l-26.833,88.332c-5.362,15.581-47.551,31.16-109.459,37.457   c18.293,1.861,38.302,2.914,59.599,2.914c93.368,0,174.259-20.185,169.057-40.371L391.856,374.926z"/>
	<polygon style="fill:#FFDF65;" points="255.564,244.584 7.658,7.5 119.273,374.926  "/>
	<polygon style="fill:#FFCD2C;" points="111.025,347.775 119.273,374.926 255.564,244.584 236.749,226.59  "/>
	<path style="fill:#FFBB64;" d="M26.908,463.258L503.471,7.5L365.023,463.258c-6.947,20.185-75.69,40.371-169.058,40.371   S21.706,483.444,26.908,463.258z"/>
	<path style="fill:#FFCD2C;" d="M391.856,374.926l-26.833,88.332c-5.362,15.581-47.551,31.16-109.459,37.457   c18.293,1.861,38.302,2.914,59.599,2.914c20.314,0,40.035-0.956,58.41-2.659c4.981-3.494,8.208-7.102,9.451-10.711l29.137-95.915   L391.856,374.926z"/>
	<path style="fill:#FFAD47;" d="M465.204,44.097L329.058,486.301c20.372-6.806,33.171-14.924,35.965-23.043L503.471,7.5   L465.204,44.097z"/>
	<g>
		<path style="fill:#AAAAAA;" d="M334.275,97.879c-6.741-39.901-39.416-70.17-78.71-70.17c-39.294,0-71.969,30.269-78.71,70.17    H334.275z"/>
		<path style="fill:#AAAAAA;" d="M176.312,124.668c1.861,14.746,7.23,28.303,15.2,39.666h128.106    c7.969-11.363,13.34-24.92,15.2-39.666H176.312z"/>
	</g>
	<path style="fill:#999999;" d="M255.564,27.709c-4.603,0-9.11,0.431-13.5,1.228c33.089,6.01,59.259,33.714,65.21,68.941h27   C327.534,57.978,294.859,27.709,255.564,27.709z"/>
	<path style="fill:#999999;" d="M307.817,124.668c-1.861,14.746-7.231,28.303-15.2,39.666h27c7.969-11.363,13.34-24.92,15.2-39.666   H307.817z"/>
	<path style="fill:#FF3D43;" d="M325.061,205.253H186.067c-4.938,0-8.942-4.003-8.942-8.942v-23.035   c0-4.938,4.003-8.942,8.942-8.942h138.994c4.938,0,8.942,4.003,8.942,8.942v23.035C334.003,201.249,330,205.253,325.061,205.253z"/>
	<path style="fill:#D72E2E;" d="M325.061,164.334h-27c4.938,0,8.942,4.003,8.942,8.942v23.035c0,4.938-4.003,8.942-8.942,8.942h27   c4.938,0,8.942-4.003,8.942-8.942v-23.035C334.003,168.338,330,164.334,325.061,164.334z"/>
	<path style="fill:#525256;" d="M220.612,384.838l-18.463-179.585h106.83l-18.463,179.585c-1.842,17.92-16.938,31.543-34.952,31.543   l0,0C237.55,416.381,222.455,402.757,220.612,384.838z"/>
	<path style="fill:#464649;" d="M281.98,205.253l-18.463,179.585c-1.354,13.175-9.877,24.019-21.452,28.842   c4.169,1.737,8.73,2.701,13.5,2.701c18.014,0,33.11-13.623,34.952-31.543l18.463-179.585H281.98z"/>
	<path style="fill:#FFDF65;" d="M255.564,280.642L255.564,280.642c-7.131,0-12.911-5.78-12.911-12.911v-15.512   c0-7.131,5.781-12.911,12.911-12.911l0,0c7.131,0,12.911,5.781,12.911,12.911v15.512   C268.476,274.861,262.695,280.642,255.564,280.642z"/>
	<path style="fill:#FFCD2C;" d="M255.564,239.307c-2.355,0-4.555,0.64-6.456,1.741c3.855,2.233,6.456,6.394,6.456,11.17v15.512   c0,4.776-2.6,8.936-6.456,11.17c1.901,1.101,4.101,1.741,6.456,1.741c7.131,0,12.911-5.78,12.911-12.911v-15.512   C268.476,245.088,262.695,239.307,255.564,239.307z"/>
	<g>
		<path d="M235.153,252.219v15.512c0,11.255,9.156,20.411,20.411,20.411c11.255,0,20.411-9.156,20.411-20.411v-15.512    c0-11.255-9.156-20.411-20.411-20.411C244.31,231.808,235.153,240.964,235.153,252.219z M260.976,252.219v15.512    c0,2.945-2.466,5.411-5.411,5.411s-5.411-2.466-5.411-5.411v-15.512c0-2.983,2.427-5.411,5.411-5.411    C258.548,246.808,260.976,249.235,260.976,252.219z"/>
		<path d="M442.24,209.066c0.727,0.221,1.461,0.326,2.183,0.326c3.216,0,6.19-2.085,7.173-5.322L510.647,9.68    c0.991-3.262-0.343-6.782-3.248-8.568c-2.904-1.785-6.648-1.389-9.112,0.969L333.808,159.378    c-0.582-0.368-1.188-0.698-1.816-0.991c4.424-8.442,7.599-17.594,9.373-27.084c8.649-2.558,14.983-10.562,14.983-20.03    c0-9.766-6.744-17.965-15.813-20.243c-9.472-41.361-44.372-70.821-84.971-70.821c-40.6,0-75.499,29.46-84.971,70.821    c-9.069,2.279-15.813,10.478-15.813,20.244c0,9.467,6.334,17.472,14.983,20.03c1.774,9.49,4.949,18.642,9.373,27.084    c-0.628,0.294-1.234,0.624-1.816,0.991L12.841,2.08c-2.464-2.356-6.207-2.755-9.112-0.969C0.825,2.897-0.509,6.418,0.481,9.68    l47.642,156.834c1.205,3.964,5.394,6.2,9.356,4.996c3.963-1.203,6.2-5.393,4.996-9.355L23.149,32.692L169.65,172.797    c-0.005,0.161-0.024,0.317-0.024,0.479v23.034c0,9.066,7.376,16.442,16.442,16.442h9.314l7.396,71.937l-79.873,76.386    L71.212,190.911c-1.204-3.964-5.393-6.2-9.356-4.996c-3.963,1.203-6.201,5.393-4.997,9.356l53.897,177.423l-89.031,85.144    c-1.01,0.966-1.73,2.194-2.079,3.548c-0.862,3.345-0.982,8.503,3.342,14.082c15.755,20.33,90.12,35.661,172.979,35.661    c20.496,0,40.569-0.999,59.469-2.889c19.052,1.914,39.141,2.889,59.728,2.889c82.859,0,157.224-15.331,172.978-35.661    c4.324-5.579,4.204-10.737,3.342-14.082c-0.349-1.354-1.069-2.582-2.079-3.548l-89.031-85.145l42.507-139.93    c1.204-3.963-1.033-8.152-4.996-9.355c-3.964-1.203-8.152,1.032-9.356,4.996L357.895,460.92    c-3.625,9.923-39.752,25.85-102.883,32.329c-0.13,0.01-0.259,0.022-0.388,0.038c-17.521,1.784-37.11,2.842-58.659,2.842    c-41.436,0-83.549-4.164-115.542-11.424c-32.765-7.435-43.412-15.345-45.729-18.517l170.025-162.602l8.432,82.018    c1.982,19.277,16.445,34.357,34.913,37.614v40.799c0,4.143,3.358,7.5,7.5,7.5c4.142,0,7.5-3.357,7.5-7.5v-40.799    c18.468-3.257,32.931-18.337,34.913-37.614l7.545-73.388c0.424-4.12-2.573-7.804-6.693-8.228    c-4.116-0.418-7.804,2.573-8.228,6.694l-7.545,73.388c-1.454,14.144-13.273,24.81-27.492,24.81    c-14.219,0-26.038-10.666-27.492-24.81L210.46,212.753h90.209l-7.001,68.092c-0.424,4.12,2.573,7.804,6.693,8.228    c0.261,0.026,0.52,0.04,0.776,0.04c3.797,0,7.055-2.874,7.451-6.734l7.158-69.625h9.314c9.066,0,16.442-7.376,16.442-16.442    v-23.034c0-0.162-0.02-0.319-0.024-0.479L487.98,32.692l-50.736,167.019C436.04,203.674,438.277,207.863,442.24,209.066z     M372.115,465.698c0.03-0.086,0.058-0.173,0.085-0.261l23.288-76.662l80.937,77.404c-2.34,3.204-13.005,11.102-45.72,18.525    c-30.015,6.811-68.939,10.897-107.854,11.376C344.091,489.941,367.152,480.12,372.115,465.698z M195.539,156.834    c-4.734-7.514-8.21-15.88-10.263-24.666h140.577c-2.053,8.786-5.529,17.152-10.263,24.666H195.539z M175.674,105.379h158.569    c0.007,0,0.014,0.001,0.022,0.001c0.004,0,0.008-0.001,0.012-0.001h1.177c3.25,0,5.895,2.645,5.895,5.895    s-2.645,5.895-5.895,5.895h-159.78c-3.25,0-5.895-2.645-5.895-5.895S172.424,105.379,175.674,105.379z M255.564,35.209    c32.237,0,60.169,22.727,69.331,55.17H186.234C195.395,57.936,223.328,35.209,255.564,35.209z M326.503,196.311    c0,0.795-0.647,1.442-1.442,1.442H186.067c-0.795,0-1.442-0.647-1.442-1.442v-23.034c0-1.805,2.296-1.442,3.47-1.442    c1.145,0,136.966,0,136.966,0c0.776,0,1.442,0.667,1.442,1.442V196.311z"/>
	</g>
</g>















</svg>
