[{
  "key": "1",
  "title": "First Tour",
  "places": [
    "United States",
    "India",
    "China",
    "Africa"
  ],
  "activities": "it is more then ONE nation/nationality as its fall name is The United Kingdom of Great Britain and North Ireland..",
  "status": "Public",
  "lastUpdate": "April 13,2014 10:13"
}]
